{
    "pages" : {
        "input" : "index.twig.html",
        "confirm" : "confirm.twig.html",
        "complete" : "thanks.html"
    },
    "notifications" : {
        "admin" : {
            "enable" : true,
            "template": {
                "subject" : "app_assets/email/admin/title.twig",
                "body" : "app_assets/email/admin/body.twig"
            },
            "sender" : {
                "email" : [
                    "info@milifeplus.co.jp"
                ]
            },
            "receiver" : {
                "email" : [
                    "info@milifeplus.co.jp"
                ]
            }
        },
        "user" : {
            "enable" : true,
            "template": {
                "subject" : "app_assets/email/user/title.twig",
                "body" : "app_assets/email/user/body.twig"
            },
            "sender" : {
                "email" : [
                    "info@milifeplus.co.jp"
                ]
            },
            "receiver" : {
                "emailField" : [
                    ["vfEmail"]
                ]
            }
        }
    },
    "errors" : {
        "required" : "必須項目です。",
        "email" : "正しく入力してください。",
        "same" : "入力された内容が一致しません。",
        "tel" : "正しく入力してください。",
        "length_eq" : "%2$s文字で入力してください。",
        "length_gteq" : "%2$s文字以上で入力してください。",
        "length_lteq" : "%2$s文字以内で入力してください。",
        "degit" : "数字で入力してください。",
        "katakana" : "カタカナで入力してください。"
    },
    "fields" : {
        "vfHope1Month" : {
            "label" : "第一希望日時(月)",
            "selection" : [
            "1","2","3","4","5","6","7","8","9","10","11","12"
            ]
        },
        "vfHope1Day" : {
            "label" : "第一希望日時(日)",
            "selection" : [
            "1","2","3","4","5","6","7","8","9",
            "10","11","12","13","14","15","16","17","18","19",
            "20","21","22","23","24","25","26","27","28","29",
            "30","31"
            ]
        },
        "vfHope1Time" : {
            "label" : "第一希望日時(時)",
            "selection" : [
            "9","10","11","12","13","14","15","16","17","18","19"
            ]
        },
        "vfHope2Month" : {
            "label" : "第二希望日時(月)",
            "selection" : [
            "1","2","3","4","5","6","7","8","9","10","11","12"
            ]
        },
        "vfHope2Day" : {
            "label" : "第二希望日時(日)",
            "selection" : [
            "1","2","3","4","5","6","7","8","9",
            "10","11","12","13","14","15","16","17","18","19",
            "20","21","22","23","24","25","26","27","28","29",
            "30","31"
            ]
        },
        "vfHope2Time" : {
            "label" : "第二希望日時(時)",
            "selection" : [
            "9","10","11","12","13","14","15","16","17","18","19"
            ]
        },
        "vfName" : {
            "label" : "お名前",
            "rule" : {
                "required" : true
            }
        },
        "vfNameKana" : {
            "label" : "フリガナ",
            "rule" : {
                "required" : true,
                "katakana" : true
            }
        },
        "vfEmail" : {
            "label" : "メールアドレス",
            "rule" : {
                "required" : true,
                "email" : true
            }
        },
        "vfEmailConf" : {
            "label" : "メールアドレス（確認）",
            "rule" : {
                "required" : true,
                "email" : true,
                "same" : "vfEmail"
            }
        },
        "vfTel" : {
            "label" : "電話番号",
            "rule" : {
                "required" : true,
                "degit": true
            }
        },
        "vfCheckboxAgreement" : {
            "label" : "同意する",
            "rule" : {
                "required" : true
            }
        },
        "vfContent" : {
            "label" : "ご希望・ご質問"
        }
    }
}